^C:\USERS\USER\SOURCE\REPOS\LAB6_MAPZ\DEBUG\SOURCE.OBJ
C:\USERS\USER\SOURCE\REPOS\DEBUG\LAB6_MAPZ.EXE
C:\USERS\USER\SOURCE\REPOS\DEBUG\LAB6_MAPZ.ILK
C:\USERS\USER\SOURCE\REPOS\DEBUG\LAB6_MAPZ.PDB
